{
    "name": "Book",
    "fields": [
        {
            "fieldName": "isbn",
            "fieldType": "String",
            "fieldValidateRules": [
                "required",
                "unique",
                "minlength",
                "maxlength"
            ],
            "fieldValidateRulesMinlength": 5,
            "fieldValidateRulesMaxlength": 13
        },
        {
            "fieldName": "name",
            "fieldType": "String",
            "fieldValidateRules": [
                "required",
                "maxlength"
            ],
            "fieldValidateRulesMaxlength": 100
        },
        {
            "fieldName": "publishYear",
            "fieldType": "String",
            "fieldValidateRules": [
                "required",
                "minlength",
                "maxlength"
            ],
            "fieldValidateRulesMinlength": 4,
            "fieldValidateRulesMaxlength": 4
        },
        {
            "fieldName": "copies",
            "fieldType": "Integer",
            "fieldValidateRules": [
                "required"
            ]
        },
        {
            "fieldName": "cover",
            "fieldType": "byte[]",
            "fieldTypeBlobContent": "image"
        }
    ],
    "relationships": [
        {
            "relationshipType": "one-to-one",
            "otherEntityName": "publisher",
            "otherEntityRelationshipName": "book",
            "relationshipName": "publisher",
            "otherEntityField": "name",
            "ownerSide": true
        },
        {
            "relationshipType": "many-to-many",
            "otherEntityName": "author",
            "otherEntityRelationshipName": "book",
            "relationshipName": "author",
            "otherEntityField": "firstName",
            "ownerSide": true
        }
    ],
    "changelogDate": "20191129114335",
    "entityTableName": "book",
    "dto": "no",
    "pagination": "pagination",
    "service": "serviceImpl",
    "jpaMetamodelFiltering": true,
    "fluentMethods": true,
    "readOnly": false,
    "clientRootFolder": "",
    "applications": "*"
}